<?xml version="1.0" encoding="utf-8"?>
<!-- Generator: Adobe Illustrator 22.1.0, SVG Export Plug-In . SVG Version: 6.00 Build 0)  -->
<svg version="1.1" id="Layer_1" xmlns="http://www.w3.org/2000/svg" xmlns:xlink="http://www.w3.org/1999/xlink" x="0px" y="0px"
	 viewBox="0 0 178.3 48" style="enable-background:new 0 0 178.3 48;" xml:space="preserve">

<defs>
	<style type="text/css">
	.st0{fill:none; stroke-width:0.5;}
	.st0{
		-webkit-animation: expand-from-centre 4s linear infinite;
		-moz-animation: expand-from-centre 4s linear infinite;
		-ms-animation: expand-from-centre 4s linear infinite;
		-o-animation: expand-from-centre 4s linear infinite;
		animation: expand-from-centre 4s linear infinite;
	}
	@-webkit-keyframes expand-from-centre
	{
	  from {
		stroke-dasharray: 0 600;
		stroke-dashoffset: -150;
	  }

	  to {
		stroke-dasharray: 600 600;
		stroke-dashoffset: 400;
	  }
	}
	</style>


	<linearGradient id="skyGradient" x1="100%" y1="100%">
		<stop offset="0%" stop-color="#d62231" stop-opacity="1">
			<animate attributeName="stop-color" values="#d62231;#B5000F;" dur="1s" repeatCount="indefinite" />
		</stop>
	</linearGradient>
</defs>
<g>
	<path stroke="url(#skyGradient)" class="st0" id="Path_1" d="M15.5,36.6V10.4c-0.1-1,0.6-1.8,1.6-1.9c0.1,0,0.2,0,0.3,0h2.9c1.4,0,2.4,0.5,2.4,1.9v11h11.5v-11
		c-0.1-0.9,0.5-1.8,1.5-1.9c0.1,0,0.2,0,0.4,0h2.9c1-0.1,1.8,0.6,1.9,1.6c0,0.1,0,0.2,0,0.3v26.2c0.1,1-0.6,1.8-1.6,1.9
		c-0.1,0-0.2,0-0.3,0H36c-1,0.1-1.8-0.6-1.9-1.6c0-0.1,0-0.2,0-0.3v-9.5H22.7v9.5c0.1,1-0.6,1.8-1.6,1.9c-0.1,0-0.2,0-0.3,0h-3.3
		C16.5,39,15.5,38,15.5,36.6z"/>
	<path stroke="url(#skyGradient)" class="st0" id="Path_2" d="M45.1,27.6c0-6.7,5.2-11.9,12.4-11.9s12.4,5.2,12.4,11.9s-5.2,11.9-12.4,11.9S45.1,34.2,45.1,27.6z M63.7,27.6
		c0-3.4-2.7-6.2-6.1-6.3c-3.4,0-6.2,2.7-6.3,6.1c0,0.1,0,0.1,0,0.2c0,3.4,2.7,6.2,6.1,6.3c3.4,0,6.2-2.7,6.3-6.1
		C63.7,27.7,63.7,27.6,63.7,27.6z"/>
	<path stroke="url(#skyGradient)" class="st0" id="Path_3" d="M78.4,37.1L71.8,19c-0.5-1.4,0-2.4,1.9-2.4h2.9c1.4,0,1.9,0.5,2.4,1.9L82.3,30l3.4-11c0.5-1.4,1-1.9,2.4-1.9
		h0.5c1.4,0,1.9,0.5,2.4,1.9l3.3,11l3.8-11.5c0.5-1.4,1-1.9,2.4-1.9h2.9c1.4,0,2.4,1,1.9,2.4l-6.7,18.1c-0.5,1-1,1.9-2.4,1.9h-1.9
		c-1.4,0-1.9-0.5-2.4-1.9l-3.4-11l-3.3,11c-0.5,1-1,1.9-2.4,1.9h-1.9C79.8,39,78.7,38.2,78.4,37.1z"/>
	<path stroke="url(#skyGradient)" class="st0" id="Path_4" d="M109,36.6c0.3-1.9,2-3.1,3.9-2.8c1.5,0.2,2.6,1.4,2.8,2.8c0,1.9-1.4,2.9-3.4,2.9
		C110.6,39.6,109.2,38.3,109,36.6z"/>
	<path stroke="url(#skyGradient)" class="st0" id="Path_5" d="M121.4,31.4v-10H119c-0.5,0-0.9-0.4-1-1v-2.9c0-0.5,0.4-0.9,1-1h2.9l1-4.7c0-1,1-1.4,1.9-1.4h1.9
		c0.7-0.1,1.3,0.4,1.4,1.1c0,0.1,0,0.2,0,0.4v4.3h5.2c0.5,0,0.9,0.4,1,1v2.9c0,0.5-0.4,0.9-1,1h-5.7v10c-0.1,1.2,0.7,2.3,1.9,2.4
		c1-0.1,1.8-0.9,1.9-1.9v-1c0-1,0-1,1-1h2.9c0.5,0,1,0,1.4,1c0,0.5,0.5,1.4,0.5,1.9c0,4.7-3.4,6.7-7.6,6.7
		C125.2,39.5,121.4,37.6,121.4,31.4z"/>
	<path stroke="url(#skyGradient)" class="st0" id="Path_6" d="M138,27.6c0-6.7,5.2-11.9,12.4-11.9s12.4,5.2,12.4,11.9s-5.2,11.9-12.4,11.9C143.7,39.5,138,34.2,138,27.6z
		 M156.6,27.6c0-3.4-2.8-6.2-6.3-6.1c-3.4,0-6.1,2.8-6.1,6.1c0,3.4,2.8,6.2,6.3,6.1C153.9,33.6,156.6,30.9,156.6,27.6z"/>
</g>
</svg>
